Group1_finalprojectRmd
…
## # A tibble: 1 x 1
##   sample_size
##         <int>
## 1         480

#Split by Weeks and Recombine so only samples with both weeks present: 
phylum_week1 <- phylum_processed_df %>%
  filter(study_week == "week1")

phylum_week3 <- phylum_processed_df %>%
  filter(study_week == "week3")
phylum_week3

## # A tibble: 480 x 6
##    participant_id semester study_week firmicutes bacteroidetes f_b_ratio
##    <chr>          <chr>    <chr>           <dbl>         <dbl>     <dbl>
##  1 U042           Fall2015 week3          13515         16756      0.807
##  2 U044           Fall2015 week3          15632          7587      2.06 
##  3 U046           Fall2015 week3           7980.        17707      0.451
##  4 U048           Fall2015 week3          12427         22233      0.559
##  5 U050           Fall2015 week3          12079          9706      1.24 
##  6 U052           Fall2015 week3           5324         16858      0.316
##  7 U054           Fall2015 week3          12668.        14542.     0.871
##  8 U057           Fall2015 week3           8265         16255      0.508
##  9 U059           Fall2015 week3           8742         14673      0.596
## 10 U062           Fall2015 week3           6117.        21792.     0.281
## # ... with 470 more rows

phylum_processed_df_both_weeks_present <- inner_join(phylum_week1, phylum_week3, by = (c("participant_id")))

#Final Data Frames:
phylum_processed_df

## # A tibble: 988 x 6
##    participant_id semester study_week firmicutes bacteroidetes f_b_ratio
##    <chr>          <chr>    <chr>           <dbl>         <dbl>     <dbl>
##  1 U042           Fall2015 week1          14119          18149     0.778
##  2 U042           Fall2015 week3          13515          16756     0.807
##  3 U044           Fall2015 week3          15632           7587     2.06 
##  4 U046           Fall2015 week3           7980.         17707     0.451
##  5 U048           Fall2015 week3          12427          22233     0.559
##  6 U050           Fall2015 week3          12079           9706     1.24 
##  7 U051           Fall2015 week1          19352           4827     4.01 
##  8 U052           Fall2015 week1           4944          13166     0.376
##  9 U052           Fall2015 week3           5324          16858     0.316
## 10 U053           Fall2015 week1           7061          22655     0.312
## # ... with 978 more rows

phylum_processed_df_both_weeks_present

## # A tibble: 451 x 11
##    participant_id semester.x study_week.x firmicutes.x bacteroidetes.x
##    <chr>          <chr>      <chr>               <dbl>           <dbl>
##  1 U042           Fall2015   week1              14119           18149 
##  2 U052           Fall2015   week1               4944           13166 
##  3 U054           Fall2015   week1              11479           20357 
##  4 U062           Fall2015   week1               8366           25134.
##  5 U063           Fall2015   week1              16913.          10266 
##  6 U064           Fall2015   week1              10583           10990 
##  7 U066           Fall2015   week1               9209           14273 
##  8 U067           Fall2015   week1              19163.          16210.
##  9 U068           Fall2015   week1               6034           20364 
## 10 U070           Fall2015   week1              11963           13446 
## # ... with 441 more rows, and 6 more variables: f_b_ratio.x <dbl>,
## #   semester.y <chr>, study_week.y <chr>, firmicutes.y <dbl>,
## #   bacteroidetes.y <dbl>, f_b_ratio.y <dbl>
…
